hidden0 => out
(0, 0) => 1.0003542227533695
(1, 0) => -2.8701781881426935
(2, 0) => 0.2014117075928708
(3, 0) => 3.413500409831488
(4, 0) => 0.7922143981999092
(5, 0) => -0.8287091668334324
(6, 0) => 0.3129172761917099
(7, 0) => -5.704236373989851
(8, 0) => 0.40233496540347863
(9, 0) => 1.9681850522314592
(0, 1) => -1.1974097347623625
(1, 1) => 0.5455246325259705
(2, 1) => -0.19650307522992103
(3, 1) => 1.3286530459048456
(4, 1) => 1.4855783120961912
(5, 1) => 2.3653164997671845
(6, 1) => -2.334626464854005
(7, 1) => -0.7368708872799614
(8, 1) => -0.3805371693159913
(9, 1) => -0.3356494049157631
(0, 2) => -0.6328250330057815
(1, 2) => 2.091672111897257
(2, 2) => -1.9634316279076778
(3, 2) => -5.264308787127014
(4, 2) => 0.4426081621673366
(5, 2) => 0.7278342172292873
(6, 2) => 0.42158380708326887
(7, 2) => 3.5466309122350506
(8, 2) => 0.4155746157772082
(9, 2) => -2.454303672120366
bias => out
(0, 0) => 0.022249389690107545
(0, 1) => -1.0699105165437228
(0, 2) => -0.8073778837797578
bias => hidden0
(0, 0) => -0.7564563000417148
(0, 1) => -0.036206894820205344
(0, 2) => -2.421156706780217
(0, 3) => 3.07787098977899
(0, 4) => -1.1290895639975393
(0, 5) => 0.3364069534599828
(0, 6) => -0.5637296394391788
(0, 7) => -0.8062788024056885
(0, 8) => -2.635446670968787
(0, 9) => 0.337804879409072
in => hidden0
(0, 0) => -0.2856452722482848
(1, 0) => 1.5201381030993706
(2, 0) => -1.5246795888977056
(3, 0) => -0.3000240393058358
(0, 1) => -0.48210229918904274
(1, 1) => -0.922306057805416
(2, 1) => 3.2746894093193064
(3, 1) => 0.07668513707319383
(0, 2) => 0.5098948039313695
(1, 2) => 0.9780517655381449
(2, 2) => -0.995474222503404
(3, 2) => 0.2089648053757197
(0, 3) => -1.522457531964661
(1, 3) => 0.48724447507836405
(2, 3) => -4.929256060609507
(3, 3) => -2.4458215047439698
(0, 4) => 0.30074824305568804
(1, 4) => -1.0493622347065747
(2, 4) => -0.3073646392478906
(3, 4) => -0.7210681579080543
(0, 5) => -0.7750080759225374
(1, 5) => -1.6058347637814507
(2, 5) => 1.1907009861832247
(3, 5) => -0.8865666028917086
(0, 6) => 0.26230601305130724
(1, 6) => 2.3686776661081734
(2, 6) => 0.2869491046015386
(3, 6) => -0.05557772126042548
(0, 7) => -0.7915358980170881
(1, 7) => -2.0771643898731385
(2, 7) => 5.173135245861165
(3, 7) => 1.817954467773264
(0, 8) => -1.0415491749239791
(1, 8) => 0.13972119075981707
(2, 8) => 1.5973976422081373
(3, 8) => -0.03619625447343214
(0, 9) => 0.20856788036818985
(1, 9) => 0.8801666777803193
(2, 9) => -2.5289588658281525
(3, 9) => -2.177786088205483
